{
	"href": "https://api.spotify.com/v1/artists/53XhwfbYqKCa1cC15pYq2q/albums?offset=0&limit=20&album_type=single,album,compilation,appears_on,ep",
	"items": [{
		"album_type": "album",
		"available_markets": ["AD", "AR", "AT", "AU", "BE", "BG", "BO", "BR", "CH", "CL", "CO", "CR", "CY", "CZ", "DE", "DK", "DO", "EC", "EE", "ES", "FI", "FR", "GB", "GR", "GT", "HK", "HN", "HU", "ID", "IE", "IS", "IT", "LI", "LT", "LU", "LV", "MC", "MT", "MY", "NI", "NL", "NO", "NZ", "PA", "PE", "PH", "PL", "PT", "PY", "SE", "SG", "SK", "SV", "TR", "TW", "UY"],
		"external_urls": {
			"spotify": "https://open.spotify.com/album/0Ikw6ho559687KCPbSjr0K"
		},
		"href": "https://api.spotify.com/v1/albums/0Ikw6ho559687KCPbSjr0K",
		"id": "0Ikw6ho559687KCPbSjr0K",
		"images": [{
			"height": 640,
			"url": "https://i.scdn.co/image/e6f9725edf5e720fc69699d1541c890341fe3add",
			"width": 640
		}, {
			"height": 300,
			"url": "https://i.scdn.co/image/37b651d00306afb76cc2ab2f08c59e28f023ed5e",
			"width": 300
		}, {
			"height": 64,
			"url": "https://i.scdn.co/image/e4456e7f680871d44d2ba145f52337b702532078",
			"width": 64
		}],
		"name": "Smoke + Mirrors (Deluxe)",
		"type": "album",
		"uri": "spotify:album:0Ikw6ho559687KCPbSjr0K"
	}, {
		"album_type": "album",
		"available_markets": ["AD", "AR", "AT", "AU", "BE", "BG", "BO", "BR", "CH", "CL", "CO", "CR", "CY", "CZ", "DE", "DK", "DO", "EC", "EE", "ES", "FI", "FR", "GB", "GR", "GT", "HN", "HU", "IE", "IS", "IT", "LI", "LT", "LU", "LV", "MC", "MT", "NI", "NL", "NO", "NZ", "PA", "PE", "PL", "PT", "PY", "SE", "SK", "SV", "TR", "UY"],
		"external_urls": {
			"spotify": "https://open.spotify.com/album/5a7xlzy9LsS4EwKeOIojMX"
		},
		"href": "https://api.spotify.com/v1/albums/5a7xlzy9LsS4EwKeOIojMX",
		"id": "5a7xlzy9LsS4EwKeOIojMX",
		"images": [{
			"height": 640,
			"url": "https://i.scdn.co/image/e6f9725edf5e720fc69699d1541c890341fe3add",
			"width": 640
		}, {
			"height": 300,
			"url": "https://i.scdn.co/image/37b651d00306afb76cc2ab2f08c59e28f023ed5e",
			"width": 300
		}, {
			"height": 64,
			"url": "https://i.scdn.co/image/e4456e7f680871d44d2ba145f52337b702532078",
			"width": 64
		}],
		"name": "Smoke + Mirrors (Deluxe)",
		"type": "album",
		"uri": "spotify:album:5a7xlzy9LsS4EwKeOIojMX"
	}, {
		"album_type": "album",
		"available_markets": ["CA", "MX", "US"],
		"external_urls": {
			"spotify": "https://open.spotify.com/album/6ecx4OFG0nlUMqAi9OXQER"
		},
		"href": "https://api.spotify.com/v1/albums/6ecx4OFG0nlUMqAi9OXQER",
		"id": "6ecx4OFG0nlUMqAi9OXQER",
		"images": [{
			"height": 640,
			"url": "https://i.scdn.co/image/c0f0862961e03db633d1a9de472cf60f856e9d40",
			"width": 640
		}, {
			"height": 300,
			"url": "https://i.scdn.co/image/93b671372b0b256ff878c9f78d5dcd7f68fe7a20",
			"width": 300
		}, {
			"height": 64,
			"url": "https://i.scdn.co/image/a767db297fa188d6a889cea8d6472fa4daa53c5d",
			"width": 64
		}],
		"name": "Smoke + Mirrors (Deluxe)",
		"type": "album",
		"uri": "spotify:album:6ecx4OFG0nlUMqAi9OXQER"
	}, {
		"album_type": "album",
		"available_markets": ["AD", "AR", "AT", "AU", "BE", "BG", "BO", "BR", "CH", "CL", "CO", "CR", "CY", "CZ", "DE", "DK", "DO", "EC", "EE", "ES", "FI", "FR", "GB", "GR", "GT", "HK", "HN", "HU", "ID", "IE", "IS", "IT", "LI", "LT", "LU", "LV", "MC", "MT", "MY", "NI", "NL", "NO", "NZ", "PA", "PE", "PH", "PL", "PT", "PY", "SE", "SG", "SK", "SV", "TR", "TW", "UY"],
		"external_urls": {
			"spotify": "https://open.spotify.com/album/2XjPrtaAqvviEgSHCpzHmM"
		},
		"href": "https://api.spotify.com/v1/albums/2XjPrtaAqvviEgSHCpzHmM",
		"id": "2XjPrtaAqvviEgSHCpzHmM",
		"images": [{
			"height": 640,
			"url": "https://i.scdn.co/image/7fd396057f921e71b34cc56b08da14395ecd370b",
			"width": 640
		}, {
			"height": 300,
			"url": "https://i.scdn.co/image/201aefcdbc17d6b8c54bb00478c7ec25e9c08a27",
			"width": 300
		}, {
			"height": 64,
			"url": "https://i.scdn.co/image/4f64dfd224d04d6c8bdeb00f0f895433568bff13",
			"width": 64
		}],
		"name": "Smoke + Mirrors (Deluxe)",
		"type": "album",
		"uri": "spotify:album:2XjPrtaAqvviEgSHCpzHmM"
	}, {
		"album_type": "album",
		"available_markets": ["MX"],
		"external_urls": {
			"spotify": "https://open.spotify.com/album/6rRFeV6xigfNyPoZ6YqcoW"
		},
		"href": "https://api.spotify.com/v1/albums/6rRFeV6xigfNyPoZ6YqcoW",
		"id": "6rRFeV6xigfNyPoZ6YqcoW",
		"images": [{
			"height": 640,
			"url": "https://i.scdn.co/image/5e549de8256c37c8e121254cf731a1c0071f8fec",
			"width": 640
		}, {
			"height": 300,
			"url": "https://i.scdn.co/image/85585e72e358db054d08efa26caf7353f14660cf",
			"width": 300
		}, {
			"height": 64,
			"url": "https://i.scdn.co/image/252eebdca38c6b2370b5222f7c8cf9b1040daee9",
			"width": 64
		}],
		"name": "Smoke + Mirrors (Deluxe)",
		"type": "album",
		"uri": "spotify:album:6rRFeV6xigfNyPoZ6YqcoW"
	}, {
		"album_type": "album",
		"available_markets": ["MX"],
		"external_urls": {
			"spotify": "https://open.spotify.com/album/6rKQIcPyDLYnXzcINhnLYA"
		},
		"href": "https://api.spotify.com/v1/albums/6rKQIcPyDLYnXzcINhnLYA",
		"id": "6rKQIcPyDLYnXzcINhnLYA",
		"images": [{
			"height": 640,
			"url": "https://i.scdn.co/image/16b6f195c0bf2cef6481fe6503364ada26e0f624",
			"width": 640
		}, {
			"height": 300,
			"url": "https://i.scdn.co/image/d71a2acc826fc9a2f0ede10c2ed38d78268c61ae",
			"width": 300
		}, {
			"height": 64,
			"url": "https://i.scdn.co/image/0488effee339d66e96a7fc6a9ad1fdbd99f6b6fb",
			"width": 64
		}],
		"name": "Smoke + Mirrors (Deluxe)",
		"type": "album",
		"uri": "spotify:album:6rKQIcPyDLYnXzcINhnLYA"
	}, {
		"album_type": "album",
		"available_markets": ["CA"],
		"external_urls": {
			"spotify": "https://open.spotify.com/album/2JlJphOpfnkrQayphiQUR3"
		},
		"href": "https://api.spotify.com/v1/albums/2JlJphOpfnkrQayphiQUR3",
		"id": "2JlJphOpfnkrQayphiQUR3",
		"images": [{
			"height": 640,
			"url": "https://i.scdn.co/image/b09af488b30665e4b1bdea8ca8524067808cebfc",
			"width": 640
		}, {
			"height": 300,
			"url": "https://i.scdn.co/image/e639fd7afca6feda73618e8fd02cd95b38270bd0",
			"width": 300
		}, {
			"height": 64,
			"url": "https://i.scdn.co/image/592e018ed165f214c524811461970140dfa89345",
			"width": 64
		}],
		"name": "Smoke + Mirrors",
		"type": "album",
		"uri": "spotify:album:2JlJphOpfnkrQayphiQUR3"
	}, {
		"album_type": "album",
		"available_markets": ["GB", "IE"],
		"external_urls": {
			"spotify": "https://open.spotify.com/album/2t4SjuB6sBEozekaNrFrQQ"
		},
		"href": "https://api.spotify.com/v1/albums/2t4SjuB6sBEozekaNrFrQQ",
		"id": "2t4SjuB6sBEozekaNrFrQQ",
		"images": [{
			"height": 640,
			"url": "https://i.scdn.co/image/757f5730155a5c728a07f98a171a945ffed7078f",
			"width": 640
		}, {
			"height": 300,
			"url": "https://i.scdn.co/image/fe0ff917b9a0712a972835ac645069ea13a785ec",
			"width": 300
		}, {
			"height": 64,
			"url": "https://i.scdn.co/image/68d5358d0cab39d9996f8f55932737219e07f3f3",
			"width": 64
		}],
		"name": "Smoke + Mirrors",
		"type": "album",
		"uri": "spotify:album:2t4SjuB6sBEozekaNrFrQQ"
	}, {
		"album_type": "album",
		"available_markets": ["CA", "MX", "US"],
		"external_urls": {
			"spotify": "https://open.spotify.com/album/0gmsXcmrcnxdZBrD5EyJEL"
		},
		"href": "https://api.spotify.com/v1/albums/0gmsXcmrcnxdZBrD5EyJEL",
		"id": "0gmsXcmrcnxdZBrD5EyJEL",
		"images": [{
			"height": 640,
			"url": "https://i.scdn.co/image/b09af488b30665e4b1bdea8ca8524067808cebfc",
			"width": 640
		}, {
			"height": 300,
			"url": "https://i.scdn.co/image/e639fd7afca6feda73618e8fd02cd95b38270bd0",
			"width": 300
		}, {
			"height": 64,
			"url": "https://i.scdn.co/image/592e018ed165f214c524811461970140dfa89345",
			"width": 64
		}],
		"name": "Smoke + Mirrors",
		"type": "album",
		"uri": "spotify:album:0gmsXcmrcnxdZBrD5EyJEL"
	}, {
		"album_type": "album",
		"available_markets": ["FR"],
		"external_urls": {
			"spotify": "https://open.spotify.com/album/6gblom0Rg1ZWvhMI1w2RUU"
		},
		"href": "https://api.spotify.com/v1/albums/6gblom0Rg1ZWvhMI1w2RUU",
		"id": "6gblom0Rg1ZWvhMI1w2RUU",
		"images": [{
			"height": 640,
			"url": "https://i.scdn.co/image/cd2caf847d55d9f64e5ae5a7784f7bc7e8de56d9",
			"width": 640
		}, {
			"height": 300,
			"url": "https://i.scdn.co/image/738e2028b214fa083f9a853b9c1a103b85abd606",
			"width": 300
		}, {
			"height": 64,
			"url": "https://i.scdn.co/image/3f51d89d044ca34c27c430f0a5b5d2227b0e449d",
			"width": 64
		}],
		"name": "Night Visions (Deluxe)",
		"type": "album",
		"uri": "spotify:album:6gblom0Rg1ZWvhMI1w2RUU"
	}, {
		"album_type": "album",
		"available_markets": ["MX"],
		"external_urls": {
			"spotify": "https://open.spotify.com/album/1zcNZa89FXNruaesVKiVeu"
		},
		"href": "https://api.spotify.com/v1/albums/1zcNZa89FXNruaesVKiVeu",
		"id": "1zcNZa89FXNruaesVKiVeu",
		"images": [{
			"height": 640,
			"url": "https://i.scdn.co/image/bb9a2da55ab31e91dbc47970e419195761a99caa",
			"width": 640
		}, {
			"height": 300,
			"url": "https://i.scdn.co/image/c4955f462d80fe86adf8846ea5cd64ffc5723fc0",
			"width": 300
		}, {
			"height": 64,
			"url": "https://i.scdn.co/image/9b15dc85f6c1b82d59c1929b92f2102938c36af0",
			"width": 64
		}],
		"name": "Night Visions (Deluxe)",
		"type": "album",
		"uri": "spotify:album:1zcNZa89FXNruaesVKiVeu"
	}, {
		"album_type": "album",
		"available_markets": ["AD", "AR", "AT", "AU", "BE", "BG", "BO", "BR", "CH", "CL", "CO", "CR", "CY", "CZ", "DE", "DK", "DO", "EC", "EE", "ES", "FI", "GB", "GR", "GT", "HK", "HN", "HU", "ID", "IE", "IS", "IT", "LI", "LT", "LU", "LV", "MC", "MT", "MY", "NI", "NL", "NO", "NZ", "PA", "PE", "PH", "PL", "PT", "PY", "SE", "SG", "SK", "SV", "TR", "TW", "UY"],
		"external_urls": {
			"spotify": "https://open.spotify.com/album/1vAEF8F0HoRFGiYOEeJXHW"
		},
		"href": "https://api.spotify.com/v1/albums/1vAEF8F0HoRFGiYOEeJXHW",
		"id": "1vAEF8F0HoRFGiYOEeJXHW",
		"images": [{
			"height": 640,
			"url": "https://i.scdn.co/image/16b7019d190de47507ec0fed8c7a6076bce2e31a",
			"width": 640
		}, {
			"height": 300,
			"url": "https://i.scdn.co/image/8d3bd7c9d613dd07befcc8d999f31e424172f9db",
			"width": 300
		}, {
			"height": 64,
			"url": "https://i.scdn.co/image/2fef19179d578b6e39fa85cfc11f6714a28fdaad",
			"width": 64
		}],
		"name": "Night Visions (Deluxe)",
		"type": "album",
		"uri": "spotify:album:1vAEF8F0HoRFGiYOEeJXHW"
	}, {
		"album_type": "album",
		"available_markets": ["CA", "MX"],
		"external_urls": {
			"spotify": "https://open.spotify.com/album/3NeJCfmi4VQy4jQUMduFGZ"
		},
		"href": "https://api.spotify.com/v1/albums/3NeJCfmi4VQy4jQUMduFGZ",
		"id": "3NeJCfmi4VQy4jQUMduFGZ",
		"images": [{
			"height": 640,
			"url": "https://i.scdn.co/image/bb9a2da55ab31e91dbc47970e419195761a99caa",
			"width": 640
		}, {
			"height": 300,
			"url": "https://i.scdn.co/image/c4955f462d80fe86adf8846ea5cd64ffc5723fc0",
			"width": 300
		}, {
			"height": 64,
			"url": "https://i.scdn.co/image/9b15dc85f6c1b82d59c1929b92f2102938c36af0",
			"width": 64
		}],
		"name": "Night Visions (Deluxe)",
		"type": "album",
		"uri": "spotify:album:3NeJCfmi4VQy4jQUMduFGZ"
	}, {
		"album_type": "album",
		"available_markets": ["MX", "US"],
		"external_urls": {
			"spotify": "https://open.spotify.com/album/1rzDtYMpZDhRgKNigB467r"
		},
		"href": "https://api.spotify.com/v1/albums/1rzDtYMpZDhRgKNigB467r",
		"id": "1rzDtYMpZDhRgKNigB467r",
		"images": [{
			"height": 640,
			"url": "https://i.scdn.co/image/bb9a2da55ab31e91dbc47970e419195761a99caa",
			"width": 640
		}, {
			"height": 300,
			"url": "https://i.scdn.co/image/c4955f462d80fe86adf8846ea5cd64ffc5723fc0",
			"width": 300
		}, {
			"height": 64,
			"url": "https://i.scdn.co/image/9b15dc85f6c1b82d59c1929b92f2102938c36af0",
			"width": 64
		}],
		"name": "Night Visions (Deluxe)",
		"type": "album",
		"uri": "spotify:album:1rzDtYMpZDhRgKNigB467r"
	}, {
		"album_type": "album",
		"available_markets": ["AD", "AR", "AT", "AU", "BE", "BG", "BO", "BR", "CH", "CL", "CO", "CR", "CY", "CZ", "DE", "DK", "DO", "EC", "EE", "ES", "FI", "FR", "GB", "GR", "GT", "HK", "HN", "HU", "ID", "IE", "IS", "IT", "LI", "LT", "LU", "LV", "MC", "MT", "MY", "NI", "NL", "NO", "NZ", "PA", "PE", "PH", "PL", "PT", "PY", "SE", "SG", "SK", "SV", "TR", "TW", "UY"],
		"external_urls": {
			"spotify": "https://open.spotify.com/album/6nxDQi0FeEwccEPJeNySoS"
		},
		"href": "https://api.spotify.com/v1/albums/6nxDQi0FeEwccEPJeNySoS",
		"id": "6nxDQi0FeEwccEPJeNySoS",
		"images": [{
			"height": 640,
			"url": "https://i.scdn.co/image/16b7019d190de47507ec0fed8c7a6076bce2e31a",
			"width": 640
		}, {
			"height": 300,
			"url": "https://i.scdn.co/image/8d3bd7c9d613dd07befcc8d999f31e424172f9db",
			"width": 300
		}, {
			"height": 64,
			"url": "https://i.scdn.co/image/2fef19179d578b6e39fa85cfc11f6714a28fdaad",
			"width": 64
		}],
		"name": "Night Visions",
		"type": "album",
		"uri": "spotify:album:6nxDQi0FeEwccEPJeNySoS"
	}, {
		"album_type": "album",
		"available_markets": ["MX"],
		"external_urls": {
			"spotify": "https://open.spotify.com/album/15yGzhftc7Z5zQYtDIm1Xz"
		},
		"href": "https://api.spotify.com/v1/albums/15yGzhftc7Z5zQYtDIm1Xz",
		"id": "15yGzhftc7Z5zQYtDIm1Xz",
		"images": [{
			"height": 640,
			"url": "https://i.scdn.co/image/bb9a2da55ab31e91dbc47970e419195761a99caa",
			"width": 640
		}, {
			"height": 300,
			"url": "https://i.scdn.co/image/c4955f462d80fe86adf8846ea5cd64ffc5723fc0",
			"width": 300
		}, {
			"height": 64,
			"url": "https://i.scdn.co/image/9b15dc85f6c1b82d59c1929b92f2102938c36af0",
			"width": 64
		}],
		"name": "Night Visions",
		"type": "album",
		"uri": "spotify:album:15yGzhftc7Z5zQYtDIm1Xz"
	}, {
		"album_type": "album",
		"available_markets": ["CA", "US"],
		"external_urls": {
			"spotify": "https://open.spotify.com/album/6htgf3qv7vGcsdxLCDxKp8"
		},
		"href": "https://api.spotify.com/v1/albums/6htgf3qv7vGcsdxLCDxKp8",
		"id": "6htgf3qv7vGcsdxLCDxKp8",
		"images": [{
			"height": 640,
			"url": "https://i.scdn.co/image/bb9a2da55ab31e91dbc47970e419195761a99caa",
			"width": 640
		}, {
			"height": 300,
			"url": "https://i.scdn.co/image/c4955f462d80fe86adf8846ea5cd64ffc5723fc0",
			"width": 300
		}, {
			"height": 64,
			"url": "https://i.scdn.co/image/9b15dc85f6c1b82d59c1929b92f2102938c36af0",
			"width": 64
		}],
		"name": "Night Visions",
		"type": "album",
		"uri": "spotify:album:6htgf3qv7vGcsdxLCDxKp8"
	}, {
		"album_type": "album",
		"available_markets": ["MX"],
		"external_urls": {
			"spotify": "https://open.spotify.com/album/6U3AFdOBRnLn8G4CcuVtFQ"
		},
		"href": "https://api.spotify.com/v1/albums/6U3AFdOBRnLn8G4CcuVtFQ",
		"id": "6U3AFdOBRnLn8G4CcuVtFQ",
		"images": [{
			"height": 640,
			"url": "https://i.scdn.co/image/bb9a2da55ab31e91dbc47970e419195761a99caa",
			"width": 640
		}, {
			"height": 300,
			"url": "https://i.scdn.co/image/c4955f462d80fe86adf8846ea5cd64ffc5723fc0",
			"width": 300
		}, {
			"height": 64,
			"url": "https://i.scdn.co/image/9b15dc85f6c1b82d59c1929b92f2102938c36af0",
			"width": 64
		}],
		"name": "Night Visions",
		"type": "album",
		"uri": "spotify:album:6U3AFdOBRnLn8G4CcuVtFQ"
	}, {
		"album_type": "single",
		"available_markets": ["AU", "CA", "FR", "GB", "IE", "NZ", "US"],
		"external_urls": {
			"spotify": "https://open.spotify.com/album/6PaHnwGDIqzWqz1e09uRMK"
		},
		"href": "https://api.spotify.com/v1/albums/6PaHnwGDIqzWqz1e09uRMK",
		"id": "6PaHnwGDIqzWqz1e09uRMK",
		"images": [{
			"height": 640,
			"url": "https://i.scdn.co/image/ad0fd93eca1d88a3a8e87acc1ae1a4ef571d383f",
			"width": 640
		}, {
			"height": 300,
			"url": "https://i.scdn.co/image/126211a08901e826c68415d6a6cb46a328ad3a22",
			"width": 300
		}, {
			"height": 64,
			"url": "https://i.scdn.co/image/67d8705c6a701d86c19f448c92edeefeaf2b5dd8",
			"width": 64
		}],
		"name": "I Love You All the Time (Play It Forward Campaign)",
		"type": "album",
		"uri": "spotify:album:6PaHnwGDIqzWqz1e09uRMK"
	}, {
		"album_type": "single",
		"available_markets": ["AD", "AR", "AT", "AU", "BE", "BG", "BO", "BR", "CH", "CL", "CO", "CR", "CY", "CZ", "DE", "DK", "DO", "EC", "EE", "ES", "FI", "FR", "GB", "GR", "GT", "HK", "HN", "HU", "ID", "IE", "IS", "IT", "LI", "LT", "LU", "LV", "MC", "MT", "MY", "NI", "NL", "NO", "NZ", "PA", "PE", "PH", "PL", "PT", "PY", "SE", "SG", "SK", "SV", "TR", "TW", "UY"],
		"external_urls": {
			"spotify": "https://open.spotify.com/album/5RFFGHmAQbvJZs36Sicr6P"
		},
		"href": "https://api.spotify.com/v1/albums/5RFFGHmAQbvJZs36Sicr6P",
		"id": "5RFFGHmAQbvJZs36Sicr6P",
		"images": [{
			"height": 640,
			"url": "https://i.scdn.co/image/6701d0cfa8cc2edf503741c593432183bdbc9910",
			"width": 640
		}, {
			"height": 300,
			"url": "https://i.scdn.co/image/a719a9bf9f401a311ac5d89dc758576f63a0dc5b",
			"width": 300
		}, {
			"height": 64,
			"url": "https://i.scdn.co/image/f85edbf4389f63607ca1397f62ddf7f0ee4f8291",
			"width": 64
		}],
		"name": "I Was Me",
		"type": "album",
		"uri": "spotify:album:5RFFGHmAQbvJZs36Sicr6P"
	}],
	"limit": 20,
	"next": "https://api.spotify.com/v1/artists/53XhwfbYqKCa1cC15pYq2q/albums?offset=20&limit=20&album_type=single,album,compilation,appears_on,ep",
	"offset": 0,
	"previous": null,
	"total": 210
}
